{
  "admin": [
    {
      "id": 1,
      "username": "andreiew",
      "role": "admin"
    },
    {
      "username": "god",
      "role": "4",
      "id": 2
    },
    {
      "username": "god",
      "role": "4",
      "id": 3
    },
    {
      "username": "andreiew",
      "role": "admin",
      "id": 4
    }
  ],
  "gifts": [
    {
      "title": "Яндекс.Еда",
      "describe": "",
      "price": "",
      "category": "",
      "id": 1
    }
  ],
  "categories": [
    {
      "name": "Новинки",
      "id": 1
    },
    {
      "name": "Популярные",
      "id": 2
    },
    {
      "name": "На все случаи",
      "id": 3
    },
    {
      "name": "Электроника",
      "id": 4
    },
    {
      "name": "Косметика",
      "id": 5
    },
    {
      "name": "Детские товары",
      "id": 6
    },
    {
      "name": "Ювелирные украшения",
      "id": 7
    },
    {
      "name": "Игры",
      "id": 8
    },
    {
      "name": "Зоотовары",
      "id": 9
    },
    {
      "name": "Услуги",
      "id": 10
    },
    {
      "name": "Красота и здоровье",
      "id": 11
    },
    {
      "name": "Подарки",
      "id": 12
    },
    {
      "name": "Аксессуары",
      "id": 13
    },
    {
      "name": "Книги",
      "id": 14
    },
    {
      "name": "Одежда и обувь",
      "id": 15
    },
    {
      "name": "Товары для дома",
      "id": 16
    },
    {
      "name": "Развлечения",
      "id": 17
    },
    {
      "name": "Спорт",
      "id": 18
    },
    {
      "name": "Рестораны",
      "id": 19
    },
    {
      "name": "Еда и алкоголь",
      "id": 20
    },
    {
      "name": "Благотворительность",
      "id": 21
    },
    {
      "name": "Продукты",
      "id": 22
    },
    {
      "name": "Техника",
      "id": 23
    },
    {
      "name": "Путешествия",
      "id": 24
    }
  ]
}